…
## завантажити інформацію про завдання

```r
df_tasks = (
  read_csv("SMoL Tutor/Tasks.csv")
  # видалили кінцевий розрив рядка
  %>% mutate(Program = str_replace(Program, "[\\\\]n$", ""))
)
df_tasks
```

```
## # A tibble: 71 × 5
##    TaskID Tutorial Task                          Program                  Result
##     <dbl> <chr>    <chr>                         <chr>                    <chr> 
##  1      1 scope1   warmup_defvar                 "(defvar x 1)\\n(defvar… 1 3   
##  2      2 scope1   warmup_error                  "(defvar xyz 173)\\nabc" error 
##  3      3 scope1   warmup_fun                    "(deffun (sum x y z)\\n… 6     
##  4      4 scope1   local_def_is_possible         "(deffun (addy x)\\n  (… 3     
##  5      5 scope1   refer_global_is_possible      "(defvar y 1)\\n(deffun… 3     
##  6      6 scope1   defs_are_recursive            "(deffun (addy x)\\n  (… 3     
##  7      7 scope1   shadow_or_overwrite           "(defvar y 100)\\n(deff… 202   
##  8      8 scope1   shadow_rather_than_overwrite  "(defvar y 100)\\n(deff… 302   
##  9      9 scope1   error_when_refer_to_undefined "(deffun (addy x)\\n  (… error 
## 10     10 scope1   what_is_x_1                   "(defvar x 1)\\n(deffun… 2     
## # ℹ 61 more rows
```
…
```
## # A tibble: 73 × 4
##    TaskID Answer                 MIs                    N_MIs
##     <dbl> <chr>                  <chr>                  <int>
##  1     61 error                  FunNotVal, IsolatedFun     2
##  2     60 error                  FunNotVal                  1
##  3     62 error                  FunNotVal                  1
##  4     57 #(#(1 7 3) #(100 7 3)) DefsCopyStructs            1
##  5     58 #(#(2 #(2 3)) #(2 3))  StructsCopyStructs         1
##  6     58 error                  NoCircularity              1
##  7     56 5 5                    DeepClosure, DefOrSet      2
##  8     56 5 error                IsolatedFun                1
##  9     56 6 7                    CallByRef, FlatEnv         2
## 10     55 0                      CallByRef, FlatEnv         2
## # ℹ 63 more rows
```
…
```r
dns = c(
  "Univ1",
  "Univ2",
  "Book"
)
dfs = list()
for (dn in dns) {
  dfs[[dn]] = read_csv(str_c("./SMoL Tutor/Datasets/", dn, ".csv")) %>% left_join(df_tasks)
}
dfs$Univ1
```

```
## # A tibble: 6,649 × 9
##    Tutee      TaskID Answer IsCorrect Time                Tutorial Task  Program
##    <chr>       <dbl> <chr>  <lgl>     <dttm>              <chr>    <chr> <chr>  
##  1 00f2d764d…      1 1 3    TRUE      2022-09-08 16:19:11 scope1   warm… "(defv…
##  2 01158de8e…      1 1 3    TRUE      2022-09-16 16:19:02 scope1   warm… "(defv…
##  3 013989e34…      1 1 3    TRUE      2022-09-08 11:00:48 scope1   warm… "(defv…
##  4 0175df601…      1 error  FALSE     2022-09-09 17:01:15 scope1   warm… "(defv…
##  5 054eb7074…      1 1 3    TRUE      2022-09-18 14:02:58 scope1   warm… "(defv…
##  6 064f1beb4…      1 1 3    TRUE      2022-09-07 23:05:58 scope1   warm… "(defv…
##  7 07dd5f024…      1 1 3    TRUE      2022-09-14 15:32:13 scope1   warm… "(defv…
##  8 0a0a92b5a…      1 1 3    TRUE      2022-09-08 16:49:48 scope1   warm… "(defv…
##  9 1364cfe91…      1 1 3    TRUE      2022-09-08 19:56:44 scope1   warm… "(defv…
## 10 141bdce8b…      1 1 3    TRUE      2022-09-07 11:18:59 scope1   warm… "(defv…
## # ℹ 6,639 more rows
## # ℹ 1 more variable: Result <chr>
```
…
Перевірте [Instrument](./SMoL%20Quizzes/Instrument/) для підтверждення.

## «ми додали ще 52 програми, щоб отримати загальну кількість 89».

```r
df_tutor_choices = (
  read_csv("./SMoL Tutor/Choices.csv")
)
df_tutor_choices
```

```
## # A tibble: 493 × 4
##    Tutorial Task          Choice IsAdded
##    <chr>    <chr>         <chr>  <lgl>  
##  1 scope1   warmup_defvar 1 3    FALSE  
##  2 scope1   warmup_defvar 1 2    FALSE  
##  3 scope1   warmup_defvar error  FALSE  
##  4 scope1   warmup_defvar 2 1    TRUE   
##  5 scope1   warmup_defvar 2 3    TRUE   
##  6 scope1   warmup_defvar 3 2    TRUE   
##  7 scope1   warmup_defvar 3 1    TRUE   
##  8 scope1   warmup_error  error  FALSE  
##  9 scope1   warmup_error  173    TRUE   
## 10 scope1   warmup_fun    6      FALSE  
## # ℹ 483 more rows
```
…
```
## # A tibble: 79 × 5
## # Groups:   TaskID [48]
##    TaskID Tutorial Task                     Answer                          P
##     <dbl> <chr>    <chr>                    <chr>                       <dbl>
##  1     68 lambda2  syntax_pitfall           15                         0.578 
##  2     51 vectors2 alias_mvec_in_mvec_trick error                      0.478 
##  3     58 lambda1  smol_quiz_circularity    #(#(2 3) #(2 3))           0.233 
##  4     43 vectors1 warmup_vecset_1          100 3                      0.132 
##  5     45 vectors1 mpairs_are_mvec          error                      0.132 
##  6     42 vectors1 warmup_vecref            10                         0.110 
##  7     49 vectors2 alias_var_in_mvec        error                      0.0870
##  8     53 vectors2 warmup_circularity       run out of memory or time. 0.0870
##  9     62 lambda1  fun_in_vectors           2                          0.0778
## 10     51 vectors2 alias_mvec_in_mvec_trick #(1 2 #(4))                0.0761
## # ℹ 69 more rows
```
…
